vendor Item #,title,Max Range,Category,approx dwt,Approx Semi-mount Gram weight,Stone Breakdown,Diamond Min (MM),Diamond Max (MM),Center Stone Weight,Center Stone Shape,total stones,semi mount diamond  weight,Diamond color,Diamond quality,Cost per 14kt dwt ($1300),14kt gold $,18kt gold $,Plat $,Setting Labor,Center Stone SettingLabor,polish labor,head to add,Melee cost,shipping from casting,Shipping to customer,total 14kt cost,total 18kt cost,total plat cost,Website 14kt Price,Website 18kt Price,Website plat Price,Style #
50277-E,HALO ENGAGEMENT RING (ROUND CENTER),White,HALO,2.9218,4.5,"1 - 1.PT Round ,41 - .0075PT Round ,14 - .01PT Round",6.3,7,0.8 to 1.25 cts,ROUND,55,0.45,G - H,VS,78.03408858,228,330.263,403.308,82.5,15,10,20,134.25,10,25,524.75,627.013,700.058," $ 1,322.37 "," $ 1,580.07 "," $ 1,764.15 ", Kaleigh
50343-E,HALO ENGAGEMENT RING (ROUND CENTER),White,HALO,5.4714,8.5,"1 - 1.5PT Round ,28 - .0075PT Round",7.31,7.8,1.5 to 1.75 cts,ROUND,28,0.21,G - H,VS,76.58003436,419,610.499,747.284,42,15,10,20,63,10,25,604,795.499,932.284," $ 1,522.08 "," $ 2,004.66 "," $ 2,349.36 ", Kaitlin
50345-E-1/2,HALO ENGAGEMENT RING (ROUND CENTER),White,HALO,2.7667,4.3,"1 - .5PT Round ,30 - .0075PT Round",4.8,5.5,0.4 to 0.65 cts,ROUND,30,0.23,G - H,VS,78.43278997,217,313.8345,383.002,45,15,10,20,67.5,10,25,409.5,506.3345,575.502," $ 1,031.94 "," $ 1,275.96 "," $ 1,450.27 ", Kassandra
50471-E,VINTAGE ENGAGEMENT RING (ROUND CENTER),White,VINTAGE,2.0562,3.2,18 - .0075PT Round,5,11,0.5 to 4.5 cts,ROUND,18,0.14,G - H,VS,80.24511234,165,236.967,288.372,27,15,10,20,40.5,10,25,312.5,384.467,435.872, $ 787.50 , $ 968.86 ," $ 1,098.40 ", Alisa
50494-E,HALO ENGAGEMENT RING (ROUND CENTER),White,HALO,3.78,5.9,"16 - .01PT Round ,20 - .0075PT Round",5.6,7.4,0.7 to 1.5 cts,ROUND,36,0.31,G - H,VS,76.98412698,291,423.3,517.8,54,15,10,20,93,10,25,518,650.3,744.8," $ 1,305.36 "," $ 1,638.76 "," $ 1,876.90 ", Savannah
50518-E,SIDE STONE ENGAGEMENT RING (ROUND CENTER),White,SIDE STONE,3.3738,5.2,"36 - .014PT Round ,2 - .012PT Round",5.6,7.4,0.7 to 1.5 cts,ROUND,38,0.53,G - H,VS,80.02845456,270,388.083,472.428,57,15,10,20,158.4,10,25,565.4,683.483,767.828," $ 1,424.81 "," $ 1,722.38 "," $ 1,934.93 ", Shayla
50530-E-A,HALO ENGAGEMENT RING (ROUND CENTER),White,HALO,2.5036,3.9,"1 - .47PT Round ,17 - .006PT Round ,16 - .008PT Round",4.8,5.5,0.4 to 0.65 cts,ROUND,33,0.23,G - H,VS,78.68669116,197,284.626,347.216,49.5,15,10,20,69,10,25,395.5,483.126,545.716, $ 996.66 ," $ 1,217.48 "," $ 1,375.20 ", Haley
50531-E-A,HALO ENGAGEMENT RING (ROUND CENTER),White,HALO,2.872,4.5,"1 - .5PT Round ,69 - .004PT Round",4.8,5.5,0.4 to 0.65 cts,ROUND,69,0.28,G - H,VS,80,229.76,330.28,402.08,103.5,15,10,20,82.8,10,25,496.06,596.58,668.38," $ 1,250.07 "," $ 1,503.38 "," $ 1,684.32 ", Ellie
50533-E-1/3,HALO ENGAGEMENT RING (ROUND CENTER),White,HALO,1.4355,2.2,"1 - .33PT Round ,35 - .005PT Round",4.26,4.85,0.3 to 0.45 cts,ROUND,35,0.18,G - H,VS,82.89794497,119,169.2425,205.13,52.5,15,10,20,52.5,10,25,304,354.2425,390.13, $ 766.08 , $ 892.69 , $ 983.13 , Kiera
50534-E-1/3,HALO ENGAGEMENT RING (ROUND CENTER),White,HALO,1.2,1.9,"1 - .33PT Round ,53 - .004PT Round",4.26,4.85,0.3 to 0.45 cts,ROUND,53,0.21,G - H,VS,85,102,144,174,79.5,15,10,20,63.6,10,25,325.1,367.1,397.1, $ 819.25 , $ 925.09 ," $ 1,000.69 ", Rachel
50536-E-A,HALO ENGAGEMENT RING (ROUND CENTER),White,HALO,1.36,2.1,57 - .003PT Round,4,4.9,0.25 to 0.4 cts,ROUND,57,0.17,G - H,VS,83.08823529,113,160.6,194.6,85.5,15,10,20,51.3,10,25,329.8,377.4,411.4, $ 831.10 , $ 951.05 ," $ 1,036.73 ", Zoe
50537-E-A,HALO ENGAGEMENT RING (ROUND CENTER),White,HALO,1.8,2.8,"2 - .01PT Round ,48 - .004PT Round",4,4.9,0.25 to 0.4 cts,ROUND,50,0.21,G - H,VS,81.11111111,146,209,254,75,15,10,20,63.6,10,25,364.6,427.6,472.6, $ 918.79 ," $ 1,077.55 "," $ 1,190.95 ", Amya
50541-E-A,HALO ENGAGEMENT RING (ROUND CENTER),White,HALO,1.14,1.8,"6 - .003PT Round ,12 - .004PT Round ,15 - .006PT Round",4,4.9,0.25 to 0.4 cts,ROUND,33,0.16,G - H,VS,85.0877193,97,136.9,165.4,49.5,15,10,20,46.8,10,25,273.3,313.2,341.7, $ 688.72 , $ 789.26 , $ 861.08 , Kasey
50544-E-A,HALO ENGAGEMENT RING (ROUND CENTER),White,HALO,1.7,2.6,50 - .004PT Round,4,4.9,0.25 to 0.4 cts,ROUND,50,0.20,G - H,VS,81.17647059,138,197.5,240,75,15,10,20,60,10,25,353,412.5,455, $ 889.56 ," $ 1,039.50 "," $ 1,146.60 ", Valentina
50545-E-A,HALO ENGAGEMENT RING (ROUND CENTER),White,HALO,2.3,3.6,62 - .004PT Round,4,5.7,0.25 to 0.75 cts,ROUND,62,0.25,G - H,VS,83.04347826,191,271.5,329,93,15,10,20,74.4,10,25,438.4,518.9,576.4," $ 1,104.77 "," $ 1,307.63 "," $ 1,452.53 ", Callie
50546-E-A,HALO ENGAGEMENT RING (ROUND CENTER),White,HALO,2,3.1,72 - .003PT Round,4,4.9,0.25 to 0.4 cts,ROUND,72,0.22,G - H,VS,80,160,230,280,108,15,10,20,64.8,10,25,412.8,482.8,532.8," $ 1,040.26 "," $ 1,216.66 "," $ 1,342.66 ", Stella
50548-E-1,HALO ENGAGEMENT RING (PRINCESS CENTER),White,HALO,2.3128,3.6,"1 - 5.3X5.3 Square ,84 - .003PT Round",,,5.5 x 5.5 mm,PRINCESS,84,0.25,G - H,VS,79.12487029,183,263.948,321.768,126,15,10,20,75.6,10,25,464.6,545.548,603.368," $ 1,170.79 "," $ 1,374.78 "," $ 1,520.49 ", Shayna
50549-E-1,HALO ENGAGEMENT RING (PRINCESS CENTER),White,HALO,1.7223,2.7,"1 - 5.5X5.5 Square ,68 - .003PT Round",,,5.5 x 5.5 mm,PRINCESS,68,0.20,G - H,VS,81.28665157,140,200.2805,243.338,102,15,10,20,61.2,10,25,383.2,443.4805,486.538, $ 965.66 ," $ 1,117.57 "," $ 1,226.08 ", Kendal
50550-E-A,HALO ENGAGEMENT RING (ROUND CENTER),White,HALO,1.95,3.0,62 - .003PT Round,4,4.9,0.25 to 0.4 cts,ROUND,62,0.19,G - H,VS,80.51282051,157,225.25,274,93,15,10,20,55.8,10,25,385.8,454.05,502.8, $ 972.22 ," $ 1,144.21 "," $ 1,267.06 ", Emilia
50552-E-1,HALO ENGAGEMENT RING (PRINCESS CENTER),White,HALO,2,3.1,"1 - 5.5X5.5 Square ,54 - .0075PT Round",,,5.5 x 5.5 mm,PRINCESS,54,0.41,G - H,VS,80,160,230,280,81,15,10,20,121.5,10,25,442.5,512.5,562.5," $ 1,115.10 "," $ 1,291.50 "," $ 1,417.50 ", Lizeth
50557-E-1/3,HALO ENGAGEMENT RING (ROUND CENTER),White,HALO,2.3,3.6,"1 - .33PT Round ,48 - .005PT Round ,14 - .007PT Round",4.26,4.85,0.3 to 0.45 cts,ROUND,62,0.34,G - H,VS,83.04347826,191,271.5,329,93,15,10,20,101.4,10,25,465.4,545.9,603.4," $ 1,172.81 "," $ 1,375.67 "," $ 1,520.57 ", Kassidy
50558-E-1/3,HALO ENGAGEMENT RING (ROUND CENTER),White,HALO,2.4,3.7,"1 - .35PT Round ,50 - .005PT Round ,14 - .007PT Round",4.26,4.85,0.3 to 0.45 cts,ROUND,64,0.35,G - H,VS,82.91666667,199,283,343,96,15,10,20,104.4,10,25,479.4,563.4,623.4," $ 1,208.09 "," $ 1,419.77 "," $ 1,570.97 ", Elena
50559-E-A,HALO ENGAGEMENT RING (ROUND CENTER),White,HALO,2.45,3.8,66 - .005PT Round,4,5.7,0.25 to 0.75 cts,ROUND,66,0.33,G - H,VS,79.18367347,194,279.75,341,99,15,10,20,99,10,25,472,557.75,619," $ 1,189.44 "," $ 1,405.53 "," $ 1,559.88 ", Renee
50565-E-1,HALO ENGAGEMENT RING (PRINCESS CENTER),White,HALO,2.42,3.8,"1 - 5.5X5.5 Square ,44 - .01PT Round",,,5.5 x 5.5 mm,PRINCESS,44,0.44,G - H,VS,78.92561983,191,275.7,336.2,66,15,10,20,132,10,25,469,553.7,614.2," $ 1,181.88 "," $ 1,395.32 "," $ 1,547.78 ", Dalia
50567-E-A,HALO ENGAGEMENT RING (ROUND CENTER),White,HALO,2.17,3.4,"6 - .015PT Round ,16 - .008PT Round",4,4.9,0.25 to 0.4 cts,ROUND,22,0.13,G - H,VS,79.7235023,173,248.95,303.2,33,15,10,20,38.4,10,25,324.4,400.35,454.6, $ 817.49 ," $ 1,008.88 "," $ 1,145.59 ", Amirah
50568-E-1,HALO ENGAGEMENT RING (PRINCESS CENTER),White,HALO,1.89,2.9,"1 - 5.5X5.5 Square ,58 - .0075PT Round",,,5.5 x 5.5 mm,PRINCESS,58,0.44,G - H,VS,80.42328042,152,218.15,265.4,87,15,10,20,130.5,10,25,449.5,515.65,562.9," $ 1,132.74 "," $ 1,299.44 "," $ 1,418.51 ", Abagail
50569-E-1/2,HALO ENGAGEMENT RING (ROUND CENTER),White,HALO,2.9,4.5,"1 - .5PT Round ,8 - .008PT Round ,40 - .006PT Round",4.8,5.5,0.4 to 0.65 cts,ROUND,48,0.30,G - H,VS,82.06896552,238,339.5,412,72,15,10,20,91.2,10,25,481.2,582.7,655.2," $ 1,212.62 "," $ 1,468.40 "," $ 1,651.10 ", Allisson
50570-E-1/2,HALO ENGAGEMENT RING (ROUND CENTER),White,HALO,1.71,2.7,"1 - .5PT Round ,8 - .008PT Round ,40 - .006PT Round",4.8,5.5,0.4 to 0.65 cts,ROUND,48,0.30,G - H,VS,81.28654971,139,198.85,241.6,72,15,10,20,91.2,10,25,382.2,442.05,484.8, $ 963.14 ," $ 1,113.97 "," $ 1,221.70 ", Zara
50580-E,SOLITAIRE ENGAGEMENT RING (ROUND CENTER),White,SOLITAIRE,3.14,4.9,"12 - .005PT Round ,12 - .006PT Round ,8 - .0075PT Round ,4 - .01PT Round",5.6,10.6,0.7 to 3.75 cts,ROUND,36,0.23,G - H,VS,77.70700637,244,353.9,432.4,54,15,10,20,69.6,10,25,447.6,557.5,636," $ 1,127.95 "," $ 1,404.90 "," $ 1,602.72 ", Samara
50618-E,VINTAGE ENGAGEMENT RING (ROUND CENTER),White,VINTAGE,3.25,5.1,36 - .01PT Round,5.6,10.6,0.7 to 3.75 cts,ROUND,36,0.36,G - H,VS,77.53846154,252,365.75,447,54,15,10,20,108,10,25,494,607.75,689," $ 1,244.88 "," $ 1,531.53 "," $ 1,736.28 ", Angie
50648-E-1/3,SIDE STONE ENGAGEMENT RING (ROUND CENTER),White,SIDE STONE,1.96,3.0,"1 - .33PT Round ,16 - .015PT Round",4.26,4.85,0.3 to 0.45 cts,ROUND,16,0.24,G - H,VS,80.6122449,158,226.6,275.6,24,15,10,20,72,10,25,334,402.6,451.6, $ 841.68 ," $ 1,014.55 "," $ 1,138.03 ", Talia
50650-E-1/3,SOLITAIRE ENGAGEMENT RING (ROUND CENTER),White,SOLITAIRE,2.55,4.0,1 - .33PT Round,4.26,4.85,0.3 to 0.45 cts,ROUND,0,0.00,G - H,VS,78.82352941,201,290.25,354,0,15,10,20,0,10,25,281,370.25,434, $ 708.12 , $ 933.03 ," $ 1,093.68 ", Carissa
50659-E,VINTAGE ENGAGEMENT RING (ROUND CENTER),White,VINTAGE,2.9684,4.6,"2 - .015PT Round ,4 - .0125PT Round ,2 - .01PT Round ,8 - .0075PT Round ,4 - .006PT Round",5.6,10.6,0.7 to 3.75 cts,ROUND,20,0.18,G - H,VS,78.15658267,232,335.894,410.104,30,15,10,20,55.2,10,25,397.2,501.094,575.304," $ 1,000.94 "," $ 1,262.76 "," $ 1,449.77 ", Dayanara
50660-E-4.3,SIDE STONE ENGAGEMENT RING (PRINCESS CENTER),White,SIDE STONE,1.99,3.1,"1 - 4.3X4.3 Square ,28 - .005PT Round ,2 - .0075PT Round ,2 - .01PT Round ,2 - .015PT Round ,2 - .018PT Round",,,4.3 x 4.3 mm,PRINCESS,36,0.24,G - H,VS,80.40201005,160,229.65,279.4,54,15,10,20,72.3,10,25,366.3,435.95,485.7, $ 923.08 ," $ 1,098.59 "," $ 1,223.96 ", Mayra
50667-E,VINTAGE ENGAGEMENT RING (ROUND CENTER),White,VINTAGE,2.76,4.3,"12 - .005PT Round ,4 - .004PT Round ,6 - .0075PT Round ,4 - .01PT Round",5.6,10.6,0.7 to 3.75 cts,ROUND,26,0.16,G - H,VS,78.26086957,216,312.6,381.6,39,15,10,20,48.3,10,25,383.3,479.9,548.9, $ 965.92 ," $ 1,209.35 "," $ 1,383.23 ", Londyn
50669-E,VINTAGE ENGAGEMENT RING (ROUND CENTER),White,VINTAGE,3,4.7,"4 - .0075PT Round ,4 - .01PT Round",5.6,10.6,0.7 to 3.75 cts,ROUND,8,0.07,G - H,VS,78,234,339,414,12,15,10,20,21,10,25,347,452,527, $ 874.44 ," $ 1,139.04 "," $ 1,328.04 ", Chasity
50774-E-1/2,SIDE STONE ENGAGEMENT RING (ROUND CENTER),White,SIDE STONE,2.02,3.1,"1 - .5PT Round ,24 - .004PT Round ,4 - .0075PT Round ,2 - .005PT Round ,2 - .015PT Round",4.8,5.5,0.4 to 0.65 cts,ROUND,32,0.17,G - H,VS,80.1980198,162,232.7,283.2,48,15,10,20,49.8,10,25,339.8,410.5,461, $ 856.30 ," $ 1,034.46 "," $ 1,161.72 ", Tara
50776-E,VINTAGE ENGAGEMENT RING (ROUND CENTER),White,VINTAGE,2.43,3.8,8 - .0075PT Round,5.6,10.6,0.7 to 3.75 cts,ROUND,8,0.06,G - H,VS,79.01234568,192,277.05,337.8,12,15,10,20,18,10,25,302,387.05,447.8, $ 761.04 , $ 975.37 ," $ 1,128.46 ", Madelynn
50779-E,SIDE STONE ENGAGEMENT RING (ROUND CENTER),White,SIDE STONE,2.32,3.6,"2 - .005PT Round ,2 - .0075PT Round ,2 - .01PT Round ,2 - .0125PT Round ,6 - .015PT Round",5.6,10.6,0.7 to 3.75 cts,ROUND,14,0.16,G - H,VS,79.31034483,184,265.2,323.2,21,15,10,20,48,10,25,333,414.2,472.2, $ 839.16 ," $ 1,043.78 "," $ 1,189.94 ", Yoselin
50785-E,VINTAGE ENGAGEMENT RING (ROUND CENTER),White,VINTAGE,3.44,5.3,28 - .0075PT Round,5.6,10.6,0.7 to 3.75 cts,ROUND,28,0.21,G - H,VS,77.3255814,266,386.4,472.4,42,15,10,20,63,10,25,451,571.4,657.4," $ 1,136.52 "," $ 1,439.93 "," $ 1,656.65 ", Kaylie
50799-E-3.8,SIDE STONE ENGAGEMENT RING (PRINCESS CENTER),White,SIDE STONE,2.26,3.5,"1 - 3.75X3.75 Square ,16 - .015PT Round",,,3.75 x 3.75 mm,PRINCESS,16,0.24,G - H,VS,79.6460177,180,259.1,315.6,24,15,10,20,72,10,25,356,435.1,491.6, $ 897.12 ," $ 1,096.45 "," $ 1,238.83 ", Meghan
50804-E,SIDE STONE ENGAGEMENT RING (ROUND CENTER),White,SIDE STONE,1.8,2.8,14 - .0075PT Round,5.6,10.6,0.7 to 3.75 cts,ROUND,14,0.11,G - H,VS,81.11111111,146,209,254,21,15,10,20,31.5,10,25,278.5,341.5,386.5, $ 701.82 , $ 860.58 , $ 973.98 , Lea
50805-E,SIDE STONE ENGAGEMENT RING (ROUND CENTER),White,SIDE STONE,1.83,2.8,"8 - .004PT Round ,16 - .005PT Round ,16 - .0075PT Round",5.6,10.6,0.7 to 3.75 cts,ROUND,40,0.23,G - H,VS,80.87431694,148,212.05,257.8,60,15,10,20,69.6,10,25,357.6,421.65,467.4, $ 901.15 ," $ 1,062.56 "," $ 1,177.85 ", Kiersten
50806-E-3.8,SOLITAIRE ENGAGEMENT RING (PRINCESS CENTER),White,SOLITAIRE,3.23,5.0,1 - 3.75X3.75 Square,,,3.75 x 3.75 mm,PRINCESS,0,0.00,G - H,VS,77.70897833,251,364.05,444.8,0,15,10,20,0,10,25,331,444.05,524.8, $ 834.12 ," $ 1,119.01 "," $ 1,322.50 ", Karlee
50815-E-1/3,HALO ENGAGEMENT RING (ROUND CENTER),White,HALO,2.1,3.3,"1 - .33PT Round ,40 - .005PT Round",4.26,4.85,0.3 to 0.45 cts,ROUND,40,0.20,G - H,VS,80,168,241.5,294,60,15,10,20,60,10,25,368,441.5,494, $ 927.36 ," $ 1,112.58 "," $ 1,244.88 ", Edith
50816-E-5.5X3.5,HALO ENGAGEMENT RING (OVAL CENTER),White,HALO,2,3.1,"1 - 5.5X3.5 Oval ,40 - .005PT Round",,,5.5 x 3.5 mm,OVAL,40,0.20,G - H,VS,80,160,230,280,60,15,10,20,60,10,25,360,430,480, $ 907.20 ," $ 1,083.60 "," $ 1,209.60 ", Amari
50817-E,SOLITAIRE ENGAGEMENT RING (ROUND CENTER),White,SOLITAIRE,3,4.7,No stones,5,8.6,0.5 to 2.25 cts,ROUND,0,0.00,G - H,VS,78,234,339,414,0,15,10,20,0,10,25,314,419,494, $ 791.28 ," $ 1,055.88 "," $ 1,244.88 ", Dania
50824-E-1/2,HALO ENGAGEMENT RING (ROUND CENTER),White,HALO,2.6,4.0,"1 - .5PT Round ,8 - .0075PT Round ,50 - .0125PT Round",4.8,5.5,0.4 to 0.65 cts,ROUND,58,0.69,G - H,VS,78.84615385,205,296,361,87,15,10,20,205.5,10,25,577.5,668.5,733.5," $ 1,455.30 "," $ 1,684.62 "," $ 1,848.42 ", Tabitha
50827-E-3/4,HALO ENGAGEMENT RING (ROUND CENTER),White,HALO,3.8,5.9,"1 - .75PT Round ,64 - .01PT Round",5.46,6.05,0.6 to 0.8 cts,ROUND,64,0.64,G - H,VS,79.47368421,302,435,530,96,15,10,20,192,10,25,670,803,898," $ 1,688.40 "," $ 2,023.56 "," $ 2,262.96 ", Aniyah
50839-E,HALO ENGAGEMENT RING (ROUND CENTER),White,HALO,3.65,5.7,"17 - .015PT Round ,32 - .0075PT Round ,18 - .005PT Round",5.6,10.6,0.7 to 3.75 cts,ROUND,67,0.59,G - H,VS,77.26027397,282,409.75,501,100.5,15,10,20,175.5,10,25,638,765.75,857," $ 1,607.76 "," $ 1,929.69 "," $ 2,159.64 ", Maren
50842-E-1/2,SIDE STONE ENGAGEMENT RING (ROUND CENTER),White,SIDE STONE,2.2,3.4,"1 - .5PT Round ,6 - .004PT Round ,26 - .005PT Round",4.8,5.5,0.4 to 0.65 cts,ROUND,32,0.15,G - H,VS,79.54545455,175,252,307,48,15,10,20,46.2,10,25,349.2,426.2,481.2, $ 879.98 ," $ 1,074.02 "," $ 1,212.62 ", Liberty
50843-E-1,SIDE STONE ENGAGEMENT RING (ROUND CENTER),White,SIDE STONE,3.23,5.0,"1 - 1.PT Round ,14 - .003PT Round ,32 - .005PT Round",6.3,7,0.8 to 1.25 cts,ROUND,46,0.20,G - H,VS,77.70897833,251,364.05,444.8,69,15,10,20,60.6,10,25,460.6,573.65,654.4," $ 1,160.71 "," $ 1,445.60 "," $ 1,649.09 ", Cheyanne
50844-E-A,HALO ENGAGEMENT RING (ROUND CENTER),White,HALO,2.5,3.9,"10 - .015PT Round ,20 - .0125PT Round ,18 - .01PT Round",4.8,6,0.4 to 0.75 cts,ROUND,48,0.58,G - H,VS,78.8,197,284.5,347,72,15,10,20,174,10,25,523,610.5,673," $ 1,317.96 "," $ 1,538.46 "," $ 1,695.96 ", Michaela
50846-E-A,HALO ENGAGEMENT RING (ROUND CENTER),White,HALO,3.4,5.3,52 - .0075PT Round,4.8,6,0.4 to 0.75 cts,ROUND,52,0.39,G - H,VS,77.35294118,263,382,467,78,15,10,20,117,10,25,538,657,742," $ 1,355.76 "," $ 1,655.64 "," $ 1,869.84 ", Margaret
50848-E-A,HALO ENGAGEMENT RING (ROUND CENTER),White,HALO,3.3,5.1,"48 - .01PT Round ,16 - .0125PT Round",4.8,6,0.4 to 0.75 cts,ROUND,64,0.68,G - H,VS,77.57575758,256,371.5,454,96,15,10,20,204,10,25,636,751.5,834," $ 1,602.72 "," $ 1,893.78 "," $ 2,101.68 ", Brooklyn
50849-E,HALO ENGAGEMENT RING (ROUND CENTER),TwoTone,HALO,4.4,6.8,"31 - .006PT Round ,28 - .0075PT Round",5.6,10.6,0.7 to 3.75 cts,ROUND,59,0.40,G - H,VS,78.63636364,346,500,610,88.5,15,10,20,118.8,10,25,633.3,787.3,897.3," $ 1,595.92 "," $ 1,984.00 "," $ 2,261.20 ", Milagros
50851-E,SIDE STONE ENGAGEMENT RING (ROUND CENTER),White,SIDE STONE,3.3,5.1,"28 - .01PT Round ,4 - .0075PT Round",5.6,10.6,0.7 to 3.75 cts,ROUND,32,0.31,G - H,VS,80.90909091,267,382.5,465,48,15,10,20,93,10,25,488,603.5,686," $ 1,229.76 "," $ 1,520.82 "," $ 1,728.72 ", Bridget
50853-E-9.2X4.5,HALO ENGAGEMENT RING (MARQUISE CENTER),White,HALO,2.8,4.4,"1 - 9.2X4.5 Marquise ,50 - .004PT Round ,14 - .01PT Round",,,9.2 x 4.5 mm,MARQUISE,64,0.34,G - H,VS,78.21428571,219,317,387,96,15,10,20,102,10,25,497,595,665," $ 1,252.44 "," $ 1,499.40 "," $ 1,675.80 ", Autumn
50854-E,HALO ENGAGEMENT RING (ROUND CENTER),White,HALO,2.7,4.2,"12 - .005PT Round ,10 - .0075PT Round ,16 - .006PT Round ,6 - .01PT Round ,4 - .015PT Round",5.6,10.6,0.7 to 3.75 cts,ROUND,36,0.35,G - H,VS,78.51851852,212,306.5,374,54,15,10,20,105.3,10,25,451.3,545.8,613.3," $ 1,137.28 "," $ 1,375.42 "," $ 1,545.52 ", Andrea
50855-E,HALO ENGAGEMENT RING (ROUND CENTER),White,HALO,2.1,3.3,"1 - .5PT Round ,14 - .0075PT Round",4.8,5.5,0.4 to 0.65 cts,ROUND,14,0.11,G - H,VS,80,168,241.5,294,21,15,10,20,31.5,10,25,300.5,374,426.5, $ 757.26 , $ 942.48 ," $ 1,074.78 ", Jaiden
50859-E,SIDE STONE ENGAGEMENT RING (ROUND CENTER),White,SIDE STONE,3.2,5.0,26 - .005PT Round,5.6,10.6,0.7 to 3.75 cts,ROUND,26,0.13,G - H,VS,77.8125,249,361,441,39,15,10,20,39,10,25,407,519,599," $ 1,025.64 "," $ 1,307.88 "," $ 1,509.48 ", Emilie
50862-E,SIDE STONE ENGAGEMENT RING (ROUND CENTER),TwoTone,SIDE STONE,3.1,4.8,56 - .005PT Round,5.6,10.6,0.7 to 3.75 cts,ROUND,56,0.28,G - H,VS,80.64516129,250,358.5,436,84,15,10,20,84,10,25,498,606.5,684," $ 1,254.96 "," $ 1,528.38 "," $ 1,723.68 ", Shannon
50867-E,HALO ENGAGEMENT RING (ROUND CENTER),TwoTone,HALO,4.7,7.3,"1 - .25PT Round ,56 - .004PT Round ,6 - .006PT Round ,10 - .0175PT Round",4,4.25,0.25 cts,ROUND,72,0.44,G - H,VS,78.29787234,368,532.5,650,108,15,10,20,130.5,10,25,686.5,851,968.5," $ 1,729.98 "," $ 2,144.52 "," $ 2,440.62 ", Rose
50870-E,HALO ENGAGEMENT RING (ROUND CENTER),White,HALO,3,4.7,"1 - 1.PT Round ,94 - .006PT Round ,4 - .01PT Round",6.3,7,0.8 to 1.25 cts,ROUND,98,0.60,G - H,VS,81,243,348,423,147,15,10,20,181.2,10,25,651.2,756.2,831.2," $ 1,641.02 "," $ 1,905.62 "," $ 2,094.62 ", Ashanti
50872-E,HALO ENGAGEMENT RING (ROUND CENTER),White,HALO,2,3.1,"1 - .5PT Round ,14 - .005PT Round ,39 - .0075PT Round ,14 - .01PT Round ,6 - .0125PT Round ,2 - .0175PT Round",4.8,5.5,0.4 to 0.65 cts,ROUND,75,0.61,G - H,VS,84.5,169,239,289,112.5,15,10,20,183.75,10,25,545.25,615.25,665.25," $ 1,374.03 "," $ 1,550.43 "," $ 1,676.43 ", Katelynn
50884-E,HALO ENGAGEMENT RING (ROUND CENTER),White,HALO,4.5,7.0,"1 - 1.PT Round ,38 - .0125PT Round ,12 - .005PT Round ,16 - .01PT Round",6.3,7,0.8 to 1.25 cts,ROUND,66,0.70,G - H,VS,76.44444444,344,501.5,614,99,15,10,20,208.5,10,25,731.5,889,1001.5," $ 1,843.38 "," $ 2,240.28 "," $ 2,523.78 ", Hana
50886-E,HALO ENGAGEMENT RING (ROUND CENTER),White,HALO,2.7,4.2,30 - .01PT Round,5.6,10.6,0.7 to 3.75 cts,ROUND,30,0.30,G - H,VS,78.51851852,212,306.5,374,45,15,10,20,90,10,25,427,521.5,589," $ 1,076.04 "," $ 1,314.18 "," $ 1,484.28 ", Janiah
50890-E-1/3,HALO ENGAGEMENT RING (ROUND CENTER),White,HALO,2.8,4.4,"1 - .33PT Round ,66 - .01PT Round",4.26,4.85,0.3 to 0.45 cts,ROUND,66,0.66,G - H,VS,78.21428571,219,317,387,99,15,10,20,198,10,25,596,694,764," $ 1,501.92 "," $ 1,748.88 "," $ 1,925.28 ", Miriam
50891-E-1/4,HALO ENGAGEMENT RING (ROUND CENTER),White,HALO,1.4,2.2,"1 - .25PT Round ,16 - .01PT Round ,10 - .006PT Round ,2 - .015PT Round",4,4.25,0.25 cts,ROUND,28,0.25,G - H,VS,82.85714286,116,165,200,42,15,10,20,75,10,25,313,362,397, $ 788.76 , $ 912.24 ," $ 1,000.44 ", Trinity
50892-E-1/4,HALO ENGAGEMENT RING (ROUND CENTER),White,HALO,2.1,3.3,"1 - .25PT Round ,18 - .01PT Round ,12 - .0075PT Round",4,4.25,0.25 cts,ROUND,30,0.27,G - H,VS,80,168,241.5,294,45,15,10,20,81,10,25,374,447.5,500, $ 942.48 ," $ 1,127.70 "," $ 1,260.00 ", Ashly
50893-E-1/4,HALO ENGAGEMENT RING (ROUND CENTER),White,HALO,1.6,2.5,"1 - .25PT Round ,20 - .006PT Round ,12 - .005PT Round",4,4.25,0.25 cts,ROUND,32,0.18,G - H,VS,81.875,131,187,227,48,15,10,20,54,10,25,313,369,409, $ 788.76 , $ 929.88 ," $ 1,030.68 ", Raelynn
50895-E,SIDE STONE ENGAGEMENT RING (ROUND CENTER),White,SIDE STONE,2.2,3.4,"26 - .01PT Round ,2 - .015PT Round",5.6,10.6,0.7 to 3.75 cts,ROUND,28,0.29,G - H,VS,85,187,264,319,42,15,10,20,87,10,25,396,473,528, $ 997.92 ," $ 1,191.96 "," $ 1,330.56 ", Jayda
50900-E-1/2,HALO ENGAGEMENT RING (ROUND CENTER),TwoTone,HALO,2.8,4.4,"1 - .47PT Round ,48 - .0075PT Round",4.8,5.5,0.4 to 0.65 cts,ROUND,48,0.36,G - H,VS,82.5,231,329,399,72,15,10,20,108,10,25,491,589,659," $ 1,237.32 "," $ 1,484.28 "," $ 1,660.68 ", Arielle
50902-E-9.2X4.5,HALO ENGAGEMENT RING (MARQUISE CENTER),White,HALO,2.8,4.4,"1 - 9.2X4.5 Marquise ,50 - .004PT Round ,14 - .01PT Round",,,9.2 x 4.5 mm,MARQUISE,64,0.34,G - H,VS,78.21428571,219,317,387,96,15,10,20,102,10,25,497,595,665," $ 1,252.44 "," $ 1,499.40 "," $ 1,675.80 ", Jazlyn
50905-E-1/2,SOLITAIRE ENGAGEMENT RING (ROUND CENTER),White,SOLITAIRE,1.7,2.6,1 - .5PT Round,4.8,5.5,0.4 to 0.65 cts,ROUND,0,0.00,G - H,VS,81.17647059,138,197.5,240,0,15,10,20,0,10,25,218,277.5,320, $ 549.36 , $ 699.30 , $ 806.40 , Brittany
50907-E-4.5,HALO ENGAGEMENT RING (CUSHION CENTER),White,HALO,2.5,3.9,"1 - 4.5X4.5 Cushion ,16 - .006PT Round",,,4.5 x 4.5 mm,CUSHION,16,0.10,G - H,VS,78.8,197,284.5,347,24,15,10,20,28.8,10,25,329.8,417.3,479.8, $ 831.10 ," $ 1,051.60 "," $ 1,209.10 ", Sophie
50908-E-10X5,HALO ENGAGEMENT RING (MARQUISE CENTER),White,HALO,2,3.1,"1 - 10X5 Marquise ,36 - .006PT Round",,,10 x 5 mm,MARQUISE,36,0.22,G - H,VS,80,160,230,280,54,15,10,20,64.8,10,25,358.8,428.8,478.8, $ 904.18 ," $ 1,080.58 "," $ 1,206.58 ", Rowan
50909-E-10X5,HALO ENGAGEMENT RING (MARQUISE CENTER),White,HALO,2.4,3.7,"1 - 10X5 Marquise ,20 - .006PT Round",,,10 x 5 mm,MARQUISE,20,0.12,G - H,VS,79.16666667,190,274,334,30,15,10,20,36,10,25,336,420,480, $ 846.72 ," $ 1,058.40 "," $ 1,209.60 ", Selena
50910-E,SIDE STONE ENGAGEMENT RING (ROUND CENTER),White,SIDE STONE,5,7.8,32 - .0075PT Round,5.6,10.6,0.7 to 3.75 cts,ROUND,32,0.24,G - H,VS,77,385,560,685,48,15,10,20,72,10,25,585,760,885," $ 1,474.20 "," $ 1,915.20 "," $ 2,230.20 ", Irene
50911-E,SIDE STONE ENGAGEMENT RING (ROUND CENTER),White,SIDE STONE,3.9,6.1,32 - .0075PT Round,5.6,10.6,0.7 to 3.75 cts,ROUND,32,0.24,G - H,VS,79.23076923,309,445.5,543,48,15,10,20,72,10,25,509,645.5,743," $ 1,282.68 "," $ 1,626.66 "," $ 1,872.36 ", Mckenna
50915-E,HALO ENGAGEMENT RING (ROUND CENTER),TwoTone,HALO,2.2,3.4,"16 - .005PT Round ,8 - .0075PT Round ,10 - .006PT Round",5.6,10.6,0.7 to 3.75 cts,ROUND,34,0.20,G - H,VS,85,187,264,319,51,15,10,20,60,10,25,378,455,510, $ 952.56 ," $ 1,146.60 "," $ 1,285.20 ", Quinn
50916-E-9X7,HALO ENGAGEMENT RING (OVAL CENTER),White,HALO,2.8,4.4,"1 - 9X7 Oval ,22 - .0075PT Round",,,9 x 7 mm,OVAL,22,0.17,G - H,VS,78.21428571,219,317,387,33,15,10,20,49.5,10,25,381.5,479.5,549.5, $ 961.38 ," $ 1,208.34 "," $ 1,384.74 ", Lena
50917-E-9X7,HALO ENGAGEMENT RING (OVAL CENTER),White,HALO,2.5,3.9,"1 - 9X7 Oval ,36 - .0075PT Round",,,9 x 7 mm,OVAL,36,0.27,G - H,VS,78.8,197,284.5,347,54,15,10,20,81,10,25,412,499.5,562," $ 1,038.24 "," $ 1,258.74 "," $ 1,416.24 ", Kiara
50919-E-5,HALO ENGAGEMENT RING (CUSHION CENTER),White,HALO,1.9,3.0,"1 - 5X5 Cushion ,30 - .0075PT Round",,,5 x 5 mm,CUSHION,30,0.23,G - H,VS,80.52631579,153,219.5,267,45,15,10,20,67.5,10,25,345.5,412,459.5, $ 870.66 ," $ 1,038.24 "," $ 1,157.94 ", Angelique
50920-E-10X8,HALO ENGAGEMENT RING (EMERALD CENTER),White,HALO,3.2,5.0,"1 - 10X8 Emerald ,28 - .0075PT Round",,,10 x 8 mm,EMERALD,28,0.21,G - H,VS,77.8125,249,361,441,42,15,10,20,63,10,25,434,546,626," $ 1,093.68 "," $ 1,375.92 "," $ 1,577.52 ", Amina
50921-E-7X5,HALO ENGAGEMENT RING (EMERALD CENTER),White,HALO,2.6,4.0,"1 - 7X5 Emerald ,34 - .0075PT Round",,,7 x 5 mm,EMERALD,34,0.26,G - H,VS,78.84615385,205,296,361,51,15,10,20,76.5,10,25,412.5,503.5,568.5," $ 1,039.50 "," $ 1,268.82 "," $ 1,432.62 ", Nayeli
50924-E-1/4,HALO ENGAGEMENT RING (ROUND CENTER),White,HALO,2.2,3.4,"1 - .25PT Round ,12 - .005PT Round",4,4.25,0.25 cts,ROUND,12,0.06,G - H,VS,79.54545455,175,252,307,18,15,10,20,18,10,25,291,368,423, $ 733.32 , $ 927.36 ," $ 1,065.96 ", Kaylynn
50925-E,SIDE STONE ENGAGEMENT RING (ROUND CENTER),TwoTone,SIDE STONE,2.5,3.9,"2 - .006PT Round ,4 - .0075PT Round ,4 - .015PT Round ,4 - .0175PT Round",5.6,10.6,0.7 to 3.75 cts,ROUND,14,0.17,G - H,VS,83.6,209,296.5,359,21,15,10,20,51.6,10,25,361.6,449.1,511.6, $ 911.23 ," $ 1,131.73 "," $ 1,289.23 ", Raina
50926-E,SIDE STONE ENGAGEMENT RING (ROUND CENTER),White,SIDE STONE,2.8,4.4,"16 - .004PT Round ,2 - .006PT Round ,32 - .005PT Round ,4 - .0075PT Round ,4 - .015PT Round ,4 - .0175PT Round",5.6,10.6,0.7 to 3.75 cts,ROUND,62,0.40,G - H,VS,82.5,231,329,399,93,15,10,20,118.8,10,25,522.8,620.8,690.8," $ 1,317.46 "," $ 1,564.42 "," $ 1,740.82 ", Lauryn
50932-E-1/4,HALO ENGAGEMENT RING (ROUND CENTER),White,HALO,3.1,4.8,"1 - .25PT Round ,10 - .006PT Round",4,4.25,0.25 cts,ROUND,10,0.06,G - H,VS,77.74193548,241,349.5,427,15,15,10,20,18,10,25,354,462.5,540, $ 892.08 ," $ 1,165.50 "," $ 1,360.80 ", Marilyn
50935-E,HALO ENGAGEMENT RING (ROUND CENTER),White,HALO,3.7,5.8,"24 - .0125PT Round ,16 - .015PT Round",5.6,10.6,0.7 to 3.75 cts,ROUND,40,0.54,G - H,VS,77.02702703,285,414.5,507,60,15,10,20,162,10,25,587,716.5,809," $ 1,479.24 "," $ 1,805.58 "," $ 2,038.68 ", Danna
50936-E,SIDE STONE ENGAGEMENT RING (ROUND CENTER),White,SIDE STONE,2.41,3.7,"1 - 1.PT Round ,8 - .0125PT Round ,8 - .015PT Round",6.3,6.65,0.8 to 1 cts,ROUND,16,0.22,G - H,VS,82.98755187,200,284.35,344.6,24,15,10,20,66,10,25,370,454.35,514.6, $ 932.40 ," $ 1,144.96 "," $ 1,296.79 ", Ashlynn
50938-E,SIDE STONE ENGAGEMENT RING (ROUND CENTER),White,SIDE STONE,1.95,3.0,"24 - .005PT Round ,2 - .01PT Round",5.6,10.6,0.7 to 3.75 cts,ROUND,26,0.14,G - H,VS,80.51282051,157,225.25,274,39,15,10,20,42,10,25,318,386.25,435, $ 801.36 , $ 973.35 ," $ 1,096.20 ", Jaqueline
50940-E,HALO ENGAGEMENT RING (ROUND CENTER),White,HALO,3.78,5.9,"22 - .0125PT Round ,57 - .006PT Round",5.6,10.6,0.7 to 3.75 cts,ROUND,79,0.62,G - H,VS,76.98412698,291,423.3,517.8,118.5,15,10,20,185.1,10,25,674.6,806.9,901.4," $ 1,699.99 "," $ 2,033.39 "," $ 2,271.53 ", Brooklynn
50944-E,SIDE STONE ENGAGEMENT RING (ROUND CENTER),White,SIDE STONE,2.53,3.9,"6 - .006PT Round ,6 - .0125PT Round ,8 - .015PT Round",5.6,10.6,0.7 to 3.75 cts,ROUND,20,0.23,G - H,VS,78.65612648,199,287.55,350.8,30,15,10,20,69.3,10,25,378.3,466.85,530.1, $ 953.32 ," $ 1,176.46 "," $ 1,335.85 ", Macey
50946-E,SIDE STONE ENGAGEMENT RING (ROUND CENTER),White,SIDE STONE,2.61,4.1,"8 - .005PT Round ,2 - .0075PT Round ,4 - .01PT Round",5.6,10.6,0.7 to 3.75 cts,ROUND,14,0.10,G - H,VS,81.99233716,214,305.35,370.6,21,15,10,20,28.5,10,25,343.5,434.85,500.1, $ 865.62 ," $ 1,095.82 "," $ 1,260.25 ", Jazmine
50947-E,SIDE STONE ENGAGEMENT RING (ROUND CENTER),White,SIDE STONE,3.31,5.1,6 - .0125PT Round,5.6,10.6,0.7 to 3.75 cts,ROUND,6,0.08,G - H,VS,80.36253776,266,381.85,464.6,9,15,10,20,22.5,10,25,377.5,493.35,576.1, $ 951.30 ," $ 1,243.24 "," $ 1,451.77 ", Larissa
51008-E-1,HALO ENGAGEMENT RING (ROUND CENTER),White,HALO,2.61,4.1,"1 - 1.PT Round ,8 - .004PT Round ,16 - .005PT Round ,16 - .0075PT Round ,18 - .006PT Round",6.3,6.65,0.8 to 1 cts,ROUND,58,0.34,G - H,VS,81.99233716,214,305.35,370.6,87,15,10,20,102,10,25,483,574.35,639.6," $ 1,217.16 "," $ 1,447.36 "," $ 1,611.79 ", Briana
51009-E-1,HALO ENGAGEMENT RING (ROUND CENTER),White,HALO,2.93,4.6,"1 - 1.PT Round ,8 - .004PT Round ,16 - .005PT Round ,16 - .0075PT Round ,20 - .006PT Round",6.3,6.65,0.8 to 1 cts,ROUND,60,0.35,G - H,VS,81.22866894,238,340.55,413.8,90,15,10,20,105.6,10,25,513.6,616.15,689.4," $ 1,294.27 "," $ 1,552.70 "," $ 1,737.29 ", Maritza
51010-E-5,HALO ENGAGEMENT RING (PRINCESS CENTER),White,HALO,2.48,3.9,"1 - 5X5 Square ,8 - .004PT Round ,16 - .005PT Round ,16 - .0075PT Round ,16 - .006PT Round",,,5 x 5 mm,PRINCESS,56,0.33,G - H,VS,82.66129032,205,291.8,353.8,84,15,10,20,98.4,10,25,467.4,554.2,616.2," $ 1,177.85 "," $ 1,396.58 "," $ 1,552.82 ", Abbigail
51011-E-7.5X5.5,HALO ENGAGEMENT RING (OVAL CENTER),White,HALO,2.93,4.6,"1 - 7.5X5.5 Oval ,8 - .004PT Round ,16 - .005PT Round ,16 - .0075PT Round ,18 - .006PT Round",,,7.5 x 5.5 mm,OVAL,58,0.34,G - H,VS,81.22866894,238,340.55,413.8,87,15,10,20,102,10,25,507,609.55,682.8," $ 1,277.64 "," $ 1,536.07 "," $ 1,720.66 ", Eileen
51012-E-10X8,HALO ENGAGEMENT RING (EMERALD CENTER),White,HALO,3.53,5.5,"1 - 10X8 Emerald ,8 - .004PT Round ,16 - .005PT Round ,38 - .0075PT Round",,,10 x 8 mm,EMERALD,62,0.40,G - H,VS,79.88668555,282,405.55,493.8,93,15,10,20,119.1,10,25,574.1,697.65,785.9," $ 1,446.73 "," $ 1,758.08 "," $ 1,980.47 ", Rebecca
51013-E-5.5,HALO ENGAGEMENT RING (CUSHION CENTER),White,HALO,2.51,3.9,"1 - 5.5X5.5 Cushion ,8 - .004PT Round ,16 - .005PT Round ,16 - .0075PT Round ,12 - .006PT Round",,,5.5 x 5.5 mm,CUSHION,52,0.30,G - H,VS,82.47011952,207,294.85,357.6,78,15,10,20,91.2,10,25,456.2,544.05,606.8," $ 1,149.62 "," $ 1,371.01 "," $ 1,529.14 ", Lyric
51014-E-10.5X7,HALO ENGAGEMENT RING (PEAR CENTER),White,HALO,3.13,4.9,"1 -  Pear ,8 - .004PT Round ,16 - .005PT Round ,36 - .0075PT Round",,,10.5 x 7 mm,PEAR,60,0.38,G - H,VS,80.51118211,252,361.55,439.8,90,15,10,20,114.6,10,25,536.6,646.15,724.4," $ 1,352.23 "," $ 1,628.30 "," $ 1,825.49 ", Dahlia
51015-E-10X5,HALO ENGAGEMENT RING (MARQUISE CENTER),White,HALO,2.93,4.6,"1 - 10X5 Marquise ,8 - .004PT Round ,16 - .005PT Round ,16 - .0075PT Round ,22 - .006PT Round",,,10 x 5 mm,MARQUISE,62,0.36,G - H,VS,81.22866894,238,340.55,413.8,93,15,10,20,109.2,10,25,520.2,622.75,696," $ 1,310.90 "," $ 1,569.33 "," $ 1,753.92 ", Lizbeth
51019-E-7.5X5.5,HALO ENGAGEMENT RING (OVAL CENTER),TwoTone,HALO,4.2,6.5,"1 - 7.5X5.5 Oval ,56 - .005PT Round ,18 - .006PT Round",,,7.5 x 5.5 mm,OVAL,74,0.39,G - H,VS,79.52380952,334,481,586,111,15,10,20,116.4,10,25,641.4,788.4,893.4," $ 1,616.33 "," $ 1,986.77 "," $ 2,251.37 ", Nancy
51021-E-5.5,HALO ENGAGEMENT RING (CUSHION CENTER),TwoTone,HALO,3.78,5.9,"1 - 5.5X5.5 Cushion ,56 - .005PT Round ,12 - .006PT Round",,,5.5 x 5.5 mm,CUSHION,68,0.35,G - H,VS,80.15873016,303,435.3,529.8,102,15,10,20,105.6,10,25,590.6,722.9,817.4," $ 1,488.31 "," $ 1,821.71 "," $ 2,059.85 ", Kadence
51022-E-10.5X7,HALO ENGAGEMENT RING (PEAR CENTER),TwoTone,HALO,4.4,6.8,"1 -  Pear ,56 - .005PT Round ,20 - .0075PT Round",,,10.5 x 7 mm,PEAR,76,0.43,G - H,VS,79.09090909,348,502,612,114,15,10,20,129,10,25,671,825,935," $ 1,690.92 "," $ 2,079.00 "," $ 2,356.20 ", Rebekah
82385-1/4,SOLITAIRE ENGAGEMENT RING (ROUND CENTER),White,SOLITAIRE,1.63,2.5,1 - .25PT Round,4,4.25,0.25 cts,ROUND,0,0.00,G - H,VS,87.11656442,142,199.05,239.8,0,15,10,20,0,10,25,222,279.05,319.8, $ 559.44 , $ 703.21 , $ 805.90 , Hailey
82652-1,SOLITAIRE ENGAGEMENT RING (PRINCESS CENTER),White,SOLITAIRE,2.8884,4.5,1 - 6X6 Square,,,6 x 6 mm,PRINCESS,0,0.00,G - H,VS,78.24401052,226,327.094,399.304,0,15,10,20,0,10,25,306,407.094,479.304, $ 771.12 ," $ 1,025.88 "," $ 1,207.85 ", Mckayla
82666,VINTAGE ENGAGEMENT RING (ROUND CENTER),White,VINTAGE,2.764,4.3,"1 - .5PT Round ,6 - .011PT Round",4.8,5.5,0.4 to 0.65 cts,ROUND,6,0.07,G - H,VS,78.50940666,217,313.74,382.84,9,15,10,20,19.8,10,25,325.8,422.54,491.64, $ 821.02 ," $ 1,064.80 "," $ 1,238.93 ", Ayla
82855-A,VINTAGE ENGAGEMENT RING (ROUND CENTER),White,VINTAGE,2.9,4.5,"1 - .25PT Round ,10 - .0075PT Round",4,4.25,0.25 cts,ROUND,10,0.08,G - H,VS,78.27586207,227,328.5,401,15,15,10,20,22.5,10,25,344.5,446,518.5, $ 868.14 ," $ 1,123.92 "," $ 1,306.62 ", Greta
82962-1/2,SOLITAIRE ENGAGEMENT RING (ROUND CENTER),White,SOLITAIRE,2.1603,3.4,1 - .5PT Round,4.8,5.5,0.4 to 0.65 cts,ROUND,0,0.00,G - H,VS,79.61857149,172,247.6105,301.618,0,15,10,20,0,10,25,252,327.6105,381.618, $ 635.04 , $ 825.58 , $ 961.68 , Kara
82964-1/2,HALO ENGAGEMENT RING (ROUND CENTER),White,HALO,2.5934,4.0,"1 - .5PT Round ,79 - .005PT Round",4.8,5.5,0.4 to 0.65 cts,ROUND,79,0.40,G - H,VS,78.66121694,204,294.769,359.604,118.5,15,10,20,118.5,10,25,521,611.769,676.604," $ 1,312.92 "," $ 1,541.66 "," $ 1,705.04 ", Alia
83090,SIDE STONE ENGAGEMENT RING (ROUND CENTER),White,SIDE STONE,1.8495,2.9,10 - .015PT Round,5.6,10.6,0.7 to 3.75 cts,ROUND,10,0.15,G - H,VS,80.56231414,149,213.7325,259.97,15,15,10,20,45,10,25,289,353.7325,399.97, $ 728.28 , $ 891.41 ," $ 1,007.92 ", Katherine
83195,HALO ENGAGEMENT RING (ROUND CENTER),White,HALO,4.1273,6.4,"1 - 1.PT Round ,40 - .0125PT Round",6.3,6.65,0.8 to 1 cts,ROUND,40,0.50,G - H,VS,76.80565987,317,461.4555,564.638,60,15,10,20,150,10,25,607,751.4555,854.638," $ 1,529.64 "," $ 1,893.67 "," $ 2,153.69 ", Imani
83342-3/4,SOLITAIRE ENGAGEMENT RING (ROUND CENTER),White,SOLITAIRE,2.3487,3.7,1 - .75PT Round,5.46,6.05,0.6 to 0.8 cts,ROUND,0,0.00,G - H,VS,83.02465194,195,277.2045,335.922,0,15,10,20,0,10,25,275,357.2045,415.922, $ 693.00 , $ 900.16 ," $ 1,048.12 ", Hillary
83343-1/4,SOLITAIRE ENGAGEMENT RING (ROUND CENTER),White,SOLITAIRE,3.4629,5.4,1 - .25PT Round,4,4.25,0.25 cts,ROUND,0,0.00,G - H,VS,77.39178145,268,389.2015,475.774,0,15,10,20,0,10,25,348,469.2015,555.774, $ 876.96 ," $ 1,182.39 "," $ 1,400.55 ", Armani
83377,VINTAGE ENGAGEMENT RING (ROUND CENTER),White,VINTAGE,2.2994,3.6,"1 - .33PT Round ,2 - .01PT Round ,2 - .0075PT Round",4.26,4.85,0.3 to 0.45 cts,ROUND,4,0.04,G - H,VS,83.06514743,191,271.479,328.964,6,15,10,20,10.5,10,25,287.5,367.979,425.464, $ 724.50 , $ 927.31 ," $ 1,072.17 ", Catherine
83443-1/4,HALO ENGAGEMENT RING (ROUND CENTER),Yellow,HALO,2.5146,3.9,"1 - .25PT Round ,22 - .01PT Round ,10 - .005PT Round",4,4.25,0.25 cts,ROUND,32,0.27,G - H,VS,78.74015748,198,286.011,348.876,48,15,10,20,81,10,25,407,495.011,557.876," $ 1,025.64 "," $ 1,247.43 "," $ 1,405.85 ", Adalyn
83475-1/2,HALO ENGAGEMENT RING (ROUND CENTER),White,HALO,2.6787,4.2,"1 - .5PT Round ,14 - .01PT Round ,28 - .0075PT Round ,34 - .005PT Round",4.8,5.5,0.4 to 0.65 cts,ROUND,76,0.52,G - H,VS,78.39623698,210,303.7545,370.722,114,15,10,20,156,10,25,560,653.7545,720.722," $ 1,411.20 "," $ 1,647.46 "," $ 1,816.22 ", Harmony
83492-9X7,HALO ENGAGEMENT RING (OVAL CENTER),White,HALO,4.3555,6.8,"1 - 9X7 Oval ,52 - .01PT Round",,,9 x 7 mm,OVAL,52,0.52,G - H,VS,76.68465159,334,486.4425,595.33,78,15,10,20,156,10,25,648,800.4425,909.33," $ 1,632.96 "," $ 2,017.12 "," $ 2,291.51 ", Sandra
83493-5,HALO ENGAGEMENT RING (ROUND CENTER),White,HALO,3.1665,4.9,"1 - .47PT Round ,42 - .01PT Round",4.8,5.5,0.4 to 0.65 cts,ROUND,42,0.42,G - H,VS,77.68829938,246,356.8275,435.99,63,15,10,20,126,10,25,515,625.8275,704.99," $ 1,297.80 "," $ 1,577.09 "," $ 1,776.57 ", Karly
83494-10X8,HALO ENGAGEMENT RING (EMERALD CENTER),White,HALO,4.6562,7.2,"1 - 10X8 Emerald ,52 - .01PT Round",,,10 x 8 mm,EMERALD,52,0.52,G - H,VS,76.45719686,356,518.967,635.372,78,15,10,20,156,10,25,670,832.967,949.372," $ 1,688.40 "," $ 2,099.08 "," $ 2,392.42 ", Kendra
83495-10X8,HALO ENGAGEMENT RING (EMERALD CENTER),White,HALO,3.4274,5.3,"1 - 10X8 Emerald ,40 - .0075PT Round",,,10 x 8 mm,EMERALD,40,0.30,G - H,VS,77.31808368,265,384.959,470.644,60,15,10,20,90,10,25,495,614.959,700.644," $ 1,247.40 "," $ 1,549.70 "," $ 1,765.62 ", Belen
83497-10X8,HALO ENGAGEMENT RING (OVAL CENTER),White,HALO,3.0562,4.8,"1 - 10X8 Oval ,34 - .0075PT Round",,,10 x 8 mm,OVAL,34,0.26,G - H,VS,77.87448465,238,344.967,421.372,51,15,10,20,76.5,10,25,445.5,552.467,628.872," $ 1,122.66 "," $ 1,392.22 "," $ 1,584.76 ", Kamila
83498-10X7,HALO ENGAGEMENT RING (PEAR CENTER),White,HALO,2.9446,4.6,"1 - 10X7 Pear ,31 - .0075PT Round",,,10 x 7 mm,PEAR,31,0.23,G - H,VS,78.10908103,230,333.061,406.676,46.5,15,10,20,69.75,10,25,426.25,529.311,602.926," $ 1,074.15 "," $ 1,333.86 "," $ 1,519.37 ", Madyson
83499-4,HALO ENGAGEMENT RING (ROUND CENTER),White,HALO,2.043,3.2,"1 - .23PT Round ,22 - .0075PT Round",4,4.25,0.25 cts,ROUND,22,0.17,G - H,VS,80.27410671,164,235.505,286.58,33,15,10,20,49.5,10,25,326.5,398.005,449.08, $ 822.78 ," $ 1,002.97 "," $ 1,131.68 ", Kaiya
83502-6,HALO ENGAGEMENT RING (CUSHION CENTER),White,HALO,3.303,5.1,"1 - 6X6 Cushion ,8 - .015PT Round ,20 - .01PT Round ,14 - .0175PT Round",,,6 x 6 mm,CUSHION,42,0.57,G - H,VS,80.23009385,265,380.605,463.18,63,15,10,20,169.5,10,25,577.5,693.105,775.68," $ 1,455.30 "," $ 1,746.62 "," $ 1,954.71 ", Katrina
83503-10,HALO ENGAGEMENT RING (CUSHION CENTER),White,HALO,3.7146,5.8,"1 - 10X10 Cushion ,40 - .0075PT Round",,,10 x 10 mm,CUSHION,40,0.30,G - H,VS,76.99348517,286,416.011,508.876,60,15,10,20,90,10,25,516,646.011,738.876," $ 1,300.32 "," $ 1,627.95 "," $ 1,861.97 ", Izabella
83524,HALO ENGAGEMENT RING (ROUND CENTER),White,HALO,4.8584,7.6,"1 - 1.PT Round ,32 - .01PT Round",6.3,6.65,0.8 to 1 cts,ROUND,32,0.32,G - H,VS,78.00922114,379,549.044,670.504,48,15,10,20,96,10,25,603,773.044,894.504," $ 1,519.56 "," $ 1,948.07 "," $ 2,254.15 ", Aspen
83532-10X5,HALO ENGAGEMENT RING (MARQUISE CENTER),White,HALO,2.552,4.0,"1 - 10X5 Marquise ,32 - .0075PT Round",,,10 x 5 mm,MARQUISE,32,0.24,G - H,VS,78.76175549,201,290.32,354.12,48,15,10,20,72,10,25,401,490.32,554.12," $ 1,010.52 "," $ 1,235.61 "," $ 1,396.38 ", Jessica
83554,HALO ENGAGEMENT RING (ROUND CENTER),White,HALO,4.79,7.4,"1 - 1.25PT Round ,32 - .01PT Round",6.5,7.3,1 to 1.25 cts,ROUND,32,0.32,G - H,VS,76.20041754,365,532.65,652.4,48,15,10,20,96,10,25,589,756.65,876.4," $ 1,484.28 "," $ 1,906.76 "," $ 2,208.53 ", Baylee
83556,HALO ENGAGEMENT RING (ROUND CENTER),White,HALO,3.379,5.3,"1 - 1.9PT Round ,22 - .0075PT Round",8,8.6,2 to 2.25 cts,ROUND,22,0.17,G - H,VS,77.53773306,262,380.265,464.74,33,15,10,20,49.5,10,25,424.5,542.765,627.24," $ 1,069.74 "," $ 1,367.77 "," $ 1,580.64 ", Georgia
83616,HALO ENGAGEMENT RING (ROUND CENTER),White,HALO,3.4163,5.3,"1 - .5PT Round ,2 - .0125PT Round ,18 - .01PT Round ,6 - .0075PT Round",4.8,5.5,0.4 to 0.65 cts,ROUND,26,0.25,G - H,VS,77.56930012,265,384.5705,469.978,39,15,10,20,75,10,25,459,578.5705,663.978," $ 1,156.68 "," $ 1,458.00 "," $ 1,673.22 ", Mylee
83626,HALO ENGAGEMENT RING (ROUND CENTER),White,HALO,4.8753,7.6,"1 - 1.PT Round ,65 - .01PT Round",6.3,6.65,0.8 to 1 cts,ROUND,65,0.65,G - H,VS,78.14903698,381,551.6355,673.518,97.5,15,10,20,195,10,25,753.5,924.1355,1046.018," $ 1,898.82 "," $ 2,328.82 "," $ 2,635.97 ", Ali
83650,HALO ENGAGEMENT RING (EMERALD CENTER),White,HALO,3.5379,5.5,"1 - 5X4 Emerald ,18 - .01PT Round ,2 - .0125PT Round ,10 - .0075PT Round",,,5 x 4 mm,EMERALD,30,0.28,G - H,VS,77.16441957,273,396.8265,485.274,45,15,10,20,84,10,25,482,605.8265,694.274," $ 1,214.64 "," $ 1,526.68 "," $ 1,749.57 ", Jamie
83651,HALO ENGAGEMENT RING (PRINCESS CENTER),White,HALO,3.8709,6.0,"1 - 5X5 Square ,2 - .0125PT Round ,24 - .01PT Round ,6 - .0075PT Round",,,5 x 5 mm,PRINCESS,32,0.31,G - H,VS,76.98468057,298,433.4815,530.254,48,15,10,20,93,10,25,519,654.4815,751.254," $ 1,307.88 "," $ 1,649.29 "," $ 1,893.16 ", Lilliana
83755,HALO ENGAGEMENT RING (CUSHION CENTER),White,HALO,3.4517,5.4,"1 - 5X5 Cushion ,26 - .01PT Round",,,5 x 5 mm,CUSHION,26,0.26,G - H,VS,77.35318828,267,387.8095,474.102,39,15,10,20,78,10,25,464,584.8095,671.102," $ 1,169.28 "," $ 1,473.72 "," $ 1,691.18 ", Estrella
83872,HALO ENGAGEMENT RING (ROUND CENTER),White,HALO,2.768,4.3,"1 - 1.25PT Round ,34 - .01PT Round",6.5,7.3,1 to 1.25 cts,ROUND,34,0.34,G - H,VS,81.64739884,226,322.88,392.08,51,15,10,20,102,10,25,459,555.88,625.08," $ 1,156.68 "," $ 1,400.82 "," $ 1,575.20 ", Sydnee
83879-3/4,HALO ENGAGEMENT RING (ROUND CENTER),White,HALO,2.7893,4.3,"1 - .3PT Round ,44 - .01PT Round",4,4.25,0.25 cts,ROUND,44,0.44,G - H,VS,78.1558097,218,315.6255,385.358,66,15,10,20,132,10,25,496,593.6255,663.358," $ 1,249.92 "," $ 1,495.94 "," $ 1,671.66 ", Laila
83884,HALO ENGAGEMENT RING (ROUND CENTER),White,HALO,2.6719,4.2,"1 - 1.PT Round ,40 - .0075PT Round ,18 - .005PT Round",6.3,6.65,0.8 to 1 cts,ROUND,58,0.39,G - H,VS,78.59575583,210,303.5165,370.314,87,15,10,20,117,10,25,494,587.5165,654.314," $ 1,244.88 "," $ 1,480.54 "," $ 1,648.87 ", Litzy
84045-1/2,HALO ENGAGEMENT RING (ROUND CENTER),White,HALO,2.7899,4.3,"1 - .5PT Round ,2 - .01PT Round ,40 - .005PT Round",4.8,5.5,0.4 to 0.65 cts,ROUND,42,0.22,G - H,VS,81.36492347,227,324.6465,394.394,63,15,10,20,66,10,25,436,533.6465,603.394," $ 1,098.72 "," $ 1,344.79 "," $ 1,520.55 ", Mary
84051-10,HALO ENGAGEMENT RING (PRINCESS CENTER),White,HALO,5.621,8.7,"1 -  Square ,60 - .01PT Round",,,10 x 10 mm,PRINCESS,60,0.60,G - H,VS,76.49884362,430,626.735,767.26,90,15,10,20,180,10,25,780,976.735,1117.26," $ 1,965.60 "," $ 2,461.37 "," $ 2,815.50 ", Annabel
84053,HALO ENGAGEMENT RING (ROUND CENTER),White,HALO,2.8171,4.4,"1 - 1.25PT Round ,14 - .01PT Round ,20 - .005PT Round",6.5,7.3,1 to 1.25 cts,ROUND,34,0.24,G - H,VS,78.09449434,220,318.5985,389.026,51,15,10,20,72,10,25,423,521.5985,592.026," $ 1,065.96 "," $ 1,314.43 "," $ 1,491.91 ", Ariel
84062,HALO ENGAGEMENT RING (ROUND CENTER),White,HALO,2.5676,4.0,"1 - 1.9PT Round ,30 - .015PT Round",8,8.6,2 to 2.25 cts,ROUND,30,0.45,G - H,VS,78.67269045,202,291.866,356.056,45,15,10,20,135,10,25,462,551.866,616.056," $ 1,164.24 "," $ 1,390.70 "," $ 1,552.46 ", Elianna
84177,THREE STONE ENGAGEMENT RING (ROUND CENTER),White,THREE STONE,3.3022,5.1,"1 - .8PT Round ,2 - .1PT Round ,36 - .005PT Round",5.46,6.05,0.6 to 0.8 cts,ROUND,38,0.38,G - H,VS,77.52407486,256,371.577,454.132,57,15,10,20,114,10,25,507,622.577,705.132," $ 1,277.64 "," $ 1,568.89 "," $ 1,776.93 ", Aisha
84277,THREE STONE ENGAGEMENT RING (ROUND CENTER),White,THREE STONE,2.2586,3.5,"2 - .15PT Round ,16 - .01PT Round",5.6,10.6,0.7 to 3.75 cts,ROUND,18,0.16,G - H,VS,79.25263438,179,258.051,314.516,27,15,10,20,48,10,25,334,413.051,469.516, $ 841.68 ," $ 1,040.89 "," $ 1,183.18 ", Cristina
84289,HALO ENGAGEMENT RING (ROUND CENTER),TwoTone,HALO,2.96,4.6,37 - .007PT Round,5.6,10.6,0.7 to 3.75 cts,ROUND,37,0.26,G - H,VS,81.75675676,242,345.6,419.6,55.5,15,10,20,77.7,10,25,455.2,558.8,632.8," $ 1,147.10 "," $ 1,408.18 "," $ 1,594.66 ", Neveah
84290,HALO ENGAGEMENT RING (ROUND CENTER),White,HALO,2.57,4.0,"2 - .01PT Round ,16 - .0075PT Round ,49 - .006PT Round ,6 - .005PT Round",5.6,10.6,0.7 to 3.75 cts,ROUND,73,0.46,G - H,VS,78.59922179,202,291.95,356.2,109.5,15,10,20,139.2,10,25,530.7,620.65,684.9," $ 1,337.36 "," $ 1,564.04 "," $ 1,725.95 ", Sabrina
84292,HALO ENGAGEMENT RING (ROUND CENTER),White,HALO,2.36,3.7,"4 - .014PT Round ,2 - .012PT Round ,2 - .01PT Round ,2 - .01PT Round ,24 - .0075PT Round ,26 - .006PT Round ,2 - .005PT Round",5.6,10.6,0.7 to 3.75 cts,ROUND,62,0.47,G - H,VS,79.23728814,187,269.6,328.6,93,15,10,20,139.8,10,25,499.8,582.4,641.4," $ 1,259.50 "," $ 1,467.65 "," $ 1,616.33 ", Audrey
84306,SOLITAIRE ENGAGEMENT RING (ROUND CENTER),White,SOLITAIRE,2.41,3.7,"32 - .01PT Round ,36 - .005PT Round ,2 - .015PT Round",5.6,10.6,0.7 to 3.75 cts,ROUND,70,0.53,G - H,VS,79.25311203,191,275.35,335.6,105,15,10,20,159,10,25,535,619.35,679.6," $ 1,348.20 "," $ 1,560.76 "," $ 1,712.59 ", Evangeline
84321,HALO ENGAGEMENT RING (ROUND CENTER),White,HALO,2.5,3.9,"22 - .0075PT Round ,16 - .01PT Round",5.6,10.6,0.7 to 3.75 cts,ROUND,38,0.33,G - H,VS,78.8,197,284.5,347,57,15,10,20,97.5,10,25,431.5,519,581.5," $ 1,087.38 "," $ 1,307.88 "," $ 1,465.38 ", Anaya
84326,VINTAGE ENGAGEMENT RING (ROUND CENTER),White,VINTAGE,2,3.1,"10 - .005PT Round ,6 - .008PT Round",5.6,10.6,0.7 to 3.75 cts,ROUND,16,0.10,G - H,VS,80,160,230,280,24,15,10,20,29.4,10,25,293.4,363.4,413.4, $ 739.37 , $ 915.77 ," $ 1,041.77 ", Melany
84329,VINTAGE ENGAGEMENT RING (ROUND CENTER),White,VINTAGE,2.8416,4.4,"6 - .004PT Round ,18 - .005PT Round ,4 - .006PT Round ,8 - .008PT Round",5.6,10.6,0.7 to 3.75 cts,ROUND,36,0.20,G - H,VS,78.125,222,321.456,392.496,54,15,10,20,60.6,10,25,416.6,516.056,587.096," $ 1,049.83 "," $ 1,300.46 "," $ 1,479.48 ", Jordan
84330-A,HALO ENGAGEMENT RING (PRINCESS CENTER),White,HALO,3.8418,6.0,"1 - 5.2X5.2 Square ,18 - .01PT Round ,16 - .013PT Round",,,5.2 x 5.2 mm,PRINCESS,34,0.39,G - H,VS,77.04721745,296,430.463,526.508,51,15,10,20,116.4,10,25,543.4,677.863,773.908," $ 1,369.37 "," $ 1,708.21 "," $ 1,950.25 ", Krystal
84335-A,HALO ENGAGEMENT RING (ROUND CENTER),White,HALO,3.24,5.0,"1 - .5PT Round ,24 - .006PT Round ,8 - .008PT Round ,4 - .01PT Round",4.8,5.5,0.4 to 0.65 cts,ROUND,36,0.25,G - H,VS,77.77777778,252,365.4,446.4,54,15,10,20,74.4,10,25,460.4,573.8,654.8," $ 1,160.21 "," $ 1,445.98 "," $ 1,650.10 ", Alani
84372-A,HALO ENGAGEMENT RING (ROUND CENTER),White,HALO,1.97,3.1,16 - .006PT Round,4,5.7,0.25 to 0.75 cts,ROUND,16,0.10,G - H,VS,80.20304569,158,226.95,276.2,24,15,10,20,28.8,10,25,290.8,359.75,409, $ 732.82 , $ 906.57 ," $ 1,030.68 ", Rachael
84373-3/4,HALO ENGAGEMENT RING (EMERALD CENTER),White,HALO,1.78,2.8,"1 - 6X4 Emerald ,16 - .003PT Round ,26 - .004PT Round",,,6 x 4 mm,EMERALD,42,0.15,G - H,VS,80.8988764,144,206.3,250.8,63,15,10,20,45.6,10,25,332.6,394.9,439.4, $ 838.15 , $ 995.15 ," $ 1,107.29 ", Phoebe
84409-1,HALO ENGAGEMENT RING (ROUND CENTER),White,HALO,3.8,5.9,"1 - 1.PT Round ,18 - .01PT Round ,6 - .015PT Round ,6 - .022PT Round",6.3,6.65,0.8 to 1 cts,ROUND,30,0.40,G - H,VS,77.10526316,293,426,521,45,15,10,20,120.6,10,25,538.6,671.6,766.6," $ 1,357.27 "," $ 1,692.43 "," $ 1,931.83 ", Lilly
84474,HALO ENGAGEMENT RING (ROUND CENTER),White,HALO,3.11,4.8,"1 - 1.PT Round ,18 - .0075PT Round ,24 - .005PT Round",6.3,6.65,0.8 to 1 cts,ROUND,42,0.26,G - H,VS,80.7073955,251,359.85,437.6,63,15,10,20,76.5,10,25,470.5,579.35,657.1," $ 1,185.66 "," $ 1,459.96 "," $ 1,655.89 ", Alexandria
84509-4,HALO ENGAGEMENT RING (ROUND CENTER),White,HALO,3.3,5.1,"1 - .23PT Round ,25 - .01PT Round",4,4.25,0.25 cts,ROUND,25,0.25,G - H,VS,80.3030303,265,380.5,463,37.5,15,10,20,75,10,25,457.5,573,655.5," $ 1,152.90 "," $ 1,443.96 "," $ 1,651.86 ", Kaylin
84510-7,HALO ENGAGEMENT RING (PRINCESS CENTER),White,HALO,3.64,5.7,"1 - 7X7 Square ,30 - .01PT Round",,,7 x 7 mm,PRINCESS,30,0.30,G - H,VS,79.67032967,290,417.4,508.4,45,15,10,20,90,10,25,505,632.4,723.4," $ 1,272.60 "," $ 1,593.65 "," $ 1,822.97 ", Kaya
84511-6X4,HALO ENGAGEMENT RING (EMERALD CENTER),White,HALO,2.61,4.1,"1 - 6X4 Emerald ,28 - .01PT Round",,,6 x 4 mm,EMERALD,28,0.28,G - H,VS,81.99233716,214,305.35,370.6,42,15,10,20,84,10,25,420,511.35,576.6," $ 1,058.40 "," $ 1,288.60 "," $ 1,453.03 ", Mireya
84512-9X7,HALO ENGAGEMENT RING (OVAL CENTER),White,HALO,4.05,6.3,"1 - 9X7 Oval ,32 - .01PT Round",,,9 x 7 mm,OVAL,32,0.32,G - H,VS,79.01234568,320,461.75,563,48,15,10,20,96,10,25,544,685.75,787," $ 1,370.88 "," $ 1,728.09 "," $ 1,983.24 ", Juliet
84514,VINTAGE ENGAGEMENT RING (ROUND CENTER),White,VINTAGE,4.33,6.7,"1 - .75PT Round ,14 - .01PT Round",5.46,6.05,0.6 to 0.8 cts,ROUND,14,0.14,G - H,VS,76.6743649,332,483.55,591.8,21,15,10,20,42,10,25,475,626.55,734.8," $ 1,197.00 "," $ 1,578.91 "," $ 1,851.70 ", Alissa
84516,VINTAGE ENGAGEMENT RING (ROUND CENTER),White,VINTAGE,4.34,6.7,"1 - 1.PT Round ,20 - .01PT Round",6.3,6.65,0.8 to 1 cts,ROUND,20,0.20,G - H,VS,76.49769585,332,483.9,592.4,30,15,10,20,60,10,25,502,653.9,762.4," $ 1,265.04 "," $ 1,647.83 "," $ 1,921.25 ", Reese
84519,VINTAGE ENGAGEMENT RING (ROUND CENTER),White,VINTAGE,4.48,7.0,"1 - .5PT Round ,12 - .01PT Round",4.8,5.5,0.4 to 0.65 cts,ROUND,12,0.12,G - H,VS,76.5625,343,499.8,611.8,18,15,10,20,36,10,25,477,633.8,745.8," $ 1,202.04 "," $ 1,597.18 "," $ 1,879.42 ", Ellen
84522,VINTAGE ENGAGEMENT RING (ROUND CENTER),White,VINTAGE,3.67,5.7,"2 - .12PT Round ,8 - .01PT Round",5.6,10.6,0.7 to 3.75 cts,ROUND,10,0.32,G - H,VS,77.11171662,283,411.45,503.2,15,15,10,20,96,10,25,474,602.45,694.2," $ 1,194.48 "," $ 1,518.17 "," $ 1,749.38 ", Journey
84523,VINTAGE ENGAGEMENT RING (ROUND CENTER),White,VINTAGE,3.3,5.1,"1 - 1.PT Round ,20 - .01PT Round",6.3,6.65,0.8 to 1 cts,ROUND,20,0.20,G - H,VS,77.57575758,256,371.5,454,30,15,10,20,60,10,25,426,541.5,624," $ 1,073.52 "," $ 1,364.58 "," $ 1,572.48 ", Alexia
84630,HALO ENGAGEMENT RING (ROUND CENTER),White,HALO,2.4,3.7,"1 - 1.PT Round ,47 - .01PT Round",6.3,6.65,0.8 to 1 cts,ROUND,47,0.47,G - H,VS,79.16666667,190,274,334,70.5,15,10,20,141,10,25,481.5,565.5,625.5," $ 1,213.38 "," $ 1,425.06 "," $ 1,576.26 ", Marisa
84632,HALO ENGAGEMENT RING (PRINCESS CENTER),White,HALO,2.2,3.4,"1 - 6.5X6.5 Square ,48 - .01PT Round",,,6.5 x 6.5 mm,PRINCESS,48,0.48,G - H,VS,79.54545455,175,252,307,72,15,10,20,144,10,25,471,548,603," $ 1,186.92 "," $ 1,380.96 "," $ 1,519.56 ", Parker
84639,HALO ENGAGEMENT RING (ROUND CENTER),TwoTone,HALO,2.45,3.8,"8 - .02PT Round ,20 - .005PT Round",5.6,10.6,0.7 to 3.75 cts,ROUND,28,0.26,G - H,VS,82.85714286,203,288.75,350,42,15,10,20,78,10,25,403,488.75,550," $ 1,015.56 "," $ 1,231.65 "," $ 1,386.00 ", Sierra
84660-1/2,HALO ENGAGEMENT RING (ROUND CENTER),White,HALO,1.9,3.0,"1 - .5PT Round ,13 - .01PT Round ,14 - .015PT Round",4.8,5.5,0.4 to 0.65 cts,ROUND,27,0.34,G - H,VS,80.52631579,153,219.5,267,40.5,15,10,20,102,10,25,375.5,442,489.5, $ 946.26 ," $ 1,113.84 "," $ 1,233.54 ", Annie
84666,HALO ENGAGEMENT RING (ROUND CENTER),White,HALO,3.1,4.8,"1 - .85PT Round ,34 - .01PT Round",5.6,6.2,0.65 to 0.9 cts,ROUND,34,0.34,G - H,VS,80.64516129,250,358.5,436,51,15,10,20,102,10,25,483,591.5,669," $ 1,217.16 "," $ 1,490.58 "," $ 1,685.88 ", Mariela
84669,SIDE STONE ENGAGEMENT RING (ROUND CENTER),TwoTone,SIDE STONE,3.7,5.8,"1 - 1.PT Round ,14 - .015PT Round",6.3,6.65,0.8 to 1 cts,ROUND,14,0.21,G - H,VS,79.45945946,294,423.5,516,21,15,10,20,63,10,25,458,587.5,680," $ 1,154.16 "," $ 1,480.50 "," $ 1,713.60 ", Kaitlyn
84670,HALO ENGAGEMENT RING (ROUND CENTER),White,HALO,3.4,5.3,"2 - .0175PT Round ,2 - .01PT Round ,12 - .0075PT Round ,12 - .004PT Round",5.6,10.6,0.7 to 3.75 cts,ROUND,28,0.19,G - H,VS,77.35294118,263,382,467,42,15,10,20,57.9,10,25,442.9,561.9,646.9," $ 1,116.11 "," $ 1,415.99 "," $ 1,630.19 ", Amaris
84672,HALO ENGAGEMENT RING (ROUND CENTER),White,HALO,3.2,5.0,"1 - .8PT Round ,2 - .015PT Round ,8 - .0125PT Round ,20 - .01PT Round ,16 - .005PT Round",5.46,6.05,0.6 to 0.8 cts,ROUND,46,0.41,G - H,VS,77.8125,249,361,441,69,15,10,20,123,10,25,521,633,713," $ 1,312.92 "," $ 1,595.16 "," $ 1,796.76 ", Stacy
84673,HALO ENGAGEMENT RING (ROUND CENTER),White,HALO,3.8,5.9,"1 - .8PT Round ,46 - .006PT Round ,18 - .0075PT Round",5.46,6.05,0.6 to 0.8 cts,ROUND,64,0.41,G - H,VS,77.10526316,293,426,521,96,15,10,20,123.3,10,25,592.3,725.3,820.3," $ 1,492.60 "," $ 1,827.76 "," $ 2,067.16 ", Madison
84676-1/2,VINTAGE ENGAGEMENT RING (ROUND CENTER),White,VINTAGE,3.4,5.3,"1 - .5PT Round ,22 - .005PT Round ,16 - .01PT Round ,6 - .0075PT Round",4.8,5.5,0.4 to 0.65 cts,ROUND,44,0.32,G - H,VS,77.35294118,263,382,467,66,15,10,20,94.5,10,25,503.5,622.5,707.5," $ 1,268.82 "," $ 1,568.70 "," $ 1,782.90 ", Mareli
84679,HALO ENGAGEMENT RING (ROUND CENTER),White,HALO,2.7,4.2,"1 - .35PT Round ,16 - .01PT Round",4.26,4.85,0.3 to 0.45 cts,ROUND,16,0.16,G - H,VS,78.51851852,212,306.5,374,24,15,10,20,48,10,25,364,458.5,526, $ 917.28 ," $ 1,155.42 "," $ 1,325.52 ", Macie
84681,HALO ENGAGEMENT RING (ROUND CENTER),White,HALO,3.5,5.4,"1 - .5PT Round ,4 - .005PT Round ,41 - .006PT Round ,4 - .0075PT Round",4.8,5.5,0.4 to 0.65 cts,ROUND,49,0.30,G - H,VS,77.42857143,271,393.5,481,73.5,15,10,20,88.8,10,25,513.3,635.8,723.3," $ 1,293.52 "," $ 1,602.22 "," $ 1,822.72 ", Averie
84682,HALO ENGAGEMENT RING (ROUND CENTER),White,HALO,3.3,5.1,"1 - 1.PT Round ,30 - .0075PT Round ,4 - .01PT Round",6.3,6.65,0.8 to 1 cts,ROUND,34,0.27,G - H,VS,77.57575758,256,371.5,454,51,15,10,20,79.5,10,25,466.5,582,664.5," $ 1,175.58 "," $ 1,466.64 "," $ 1,674.54 ", Ayana
84693,SIDE STONE ENGAGEMENT RING (ROUND CENTER),White,SIDE STONE,2.3,3.6,"4 - .005PT Round ,90 - .006PT Round",5.6,10.6,0.7 to 3.75 cts,ROUND,94,0.56,G - H,VS,80,184,264.5,322,141,15,10,20,168,10,25,573,653.5,711," $ 1,443.96 "," $ 1,646.82 "," $ 1,791.72 ", Iris
84745,SOLITAIRE ENGAGEMENT RING (ROUND CENTER),White,SOLITAIRE,2.76,4.3,1 - .9PT Round,6,6.6,0.75 to 1 cts,ROUND,0,0.00,G - H,VS,78.26086957,216,312.6,381.6,0,15,10,20,0,10,25,296,392.6,461.6, $ 745.92 , $ 989.35 ," $ 1,163.23 ", Aleena
84746,HALO ENGAGEMENT RING (ROUND CENTER),White,HALO,2.15,3.3,"1 - 1.PT Round ,30 - .005PT Round ,22 - .006PT Round",6.3,6.65,0.8 to 1 cts,ROUND,52,0.28,G - H,VS,79.53488372,171,246.25,300,78,15,10,20,84.6,10,25,413.6,488.85,542.6," $ 1,042.27 "," $ 1,231.90 "," $ 1,367.35 ", Liana
84748,SIDE STONE ENGAGEMENT RING (ROUND CENTER),White,SIDE STONE,2.82,4.4,66 - .006PT Round,5.6,10.6,0.7 to 3.75 cts,ROUND,66,0.40,G - H,VS,78.36879433,221,319.7,390.2,99,15,10,20,118.8,10,25,518.8,617.5,688," $ 1,307.38 "," $ 1,556.10 "," $ 1,733.76 ", Reyna
84757,SOLITAIRE ENGAGEMENT RING (ROUND CENTER),White,SOLITAIRE,2.3,3.6,No stones,4.4,11,0.3 to 4.5 cts,ROUND,0,0.00,G - H,VS,79.13043478,182,262.5,320,,15,10,20,0,10,25,262,342.5,400, $ 660.24 , $ 863.10 ," $ 1,008.00 ", Camryn
84762,HALO ENGAGEMENT RING (EMERALD CENTER),White,HALO,3.72,5.8,"1 - 7X5 Emerald ,24 - .005PT Round",,,7 x 5 mm,EMERALD,24,0.12,G - H,VS,77.15053763,287,417.2,510.2,75,15,10,20,36,10,25,478,608.2,701.2," $ 1,204.56 "," $ 1,532.66 "," $ 1,767.02 ", Janiya
84764,HALO ENGAGEMENT RING (CUSHION CENTER),White,HALO,2.8,4.4,"1 -  Cushion ,24 - .005PT Round",,,8 x 8 mm,CUSHION,24,0.12,G - H,VS,78.21428571,219,317,387,75,15,10,20,36,10,25,410,508,578," $ 1,033.20 "," $ 1,280.16 "," $ 1,456.56 ", Ruth
84766,HALO ENGAGEMENT RING (ROUND CENTER),White,HALO,2.76,4.3,"1 - .5PT Round ,38 - .005PT Round",4.8,5.5,0.4 to 0.65 cts,ROUND,38,0.19,G - H,VS,78.26086957,216,312.6,381.6,117,15,10,20,57,10,25,470,566.6,635.6," $ 1,184.40 "," $ 1,427.83 "," $ 1,601.71 ", Isabella
84770,SIDE STONE ENGAGEMENT RING (ROUND CENTER),White,SIDE STONE,2.18,3.4,"6 - .006PT Round ,4 - .01PT Round ,2 - .0125PT Round",5.6,10.6,0.7 to 3.75 cts,ROUND,12,0.10,G - H,VS,79.81651376,174,250.3,304.8,36,15,10,20,30.3,10,25,320.3,396.6,451.1, $ 807.16 , $ 999.43 ," $ 1,136.77 ", Mikayla
84771,SIDE STONE ENGAGEMENT RING (ROUND CENTER),White,SIDE STONE,3.5,5.4,10 - .0125PT Round,5.6,10.6,0.7 to 3.75 cts,ROUND,10,0.13,G - H,VS,77.42857143,271,393.5,481,30,15,10,20,37.5,10,25,418.5,541,628.5," $ 1,054.62 "," $ 1,363.32 "," $ 1,583.82 ", Kiley
84772,SIDE STONE ENGAGEMENT RING (ROUND CENTER),White,SIDE STONE,2.34,3.6,44 - .0075PT Round,5.6,10.6,0.7 to 3.75 cts,ROUND,44,0.33,G - H,VS,79.05982906,185,266.9,325.4,132,15,10,20,99,10,25,496,577.9,636.4," $ 1,249.92 "," $ 1,456.31 "," $ 1,603.73 ", Arabella
84774,SIDE STONE ENGAGEMENT RING (ROUND CENTER),White,SIDE STONE,1.83,2.8,38 - .005PT Round,5.6,10.6,0.7 to 3.75 cts,ROUND,38,0.19,G - H,VS,80.87431694,148,212.05,257.8,114,15,10,20,57,10,25,399,463.05,508.8," $ 1,005.48 "," $ 1,166.89 "," $ 1,282.18 ", Emelia